<?xml version="1.0" encoding="UTF-8"?>

<svg version="1.2" baseProfile="tiny" width="297mm" height="210mm" viewBox="0 0 29700 21000" preserveAspectRatio="xMidYMid" fill-rule="evenodd" clip-path="url(#presentation_clip_path)" stroke-width="28.222" stroke-linejoin="round" xmlns="http://www.w3.org/2000/svg" xmlns:ooo="http://xml.openoffice.org/svg/export" xmlns:xlink="http://www.w3.org/1999/xlink" xml:space="preserve">
 <defs class="ClipPathGroup">
  <clipPath id="presentation_clip_path" clipPathUnits="userSpaceOnUse">
   <rect x="0" y="0" width="29700" height="21000"/>
  </clipPath>
 </defs>
 <defs>
  <font id="EmbeddedFont_1" horiz-adv-x="2048">
   <font-face font-family="Liberation Sans embedded" units-per-em="2048" font-weight="normal" font-style="normal" ascent="1864" descent="443"/>
   <missing-glyph horiz-adv-x="2048" d="M 0,0 L 2047,0 2047,2047 0,2047 0,0 Z"/>
   <glyph unicode="x" horiz-adv-x="980" d="M 801,0 L 510,444 217,0 23,0 408,556 41,1082 240,1082 510,661 778,1082 979,1082 612,558 1002,0 Z"/>
   <glyph unicode="u" horiz-adv-x="863" d="M 314,1082 L 314,396 C 314,325 321,269 335,230 349,191 371,162 402,145 433,128 478,119 537,119 624,119 692,149 742,208 792,267 817,350 817,455 L 817,1082 997,1082 997,231 C 997,105 999,28 1003,0 L 833,0 C 832,3 832,12 831,27 830,42 830,59 829,78 828,97 826,132 825,185 L 822,185 C 781,110 733,58 679,27 624,-5 557,-20 476,-20 357,-20 271,10 216,69 161,128 133,225 133,361 L 133,1082 Z"/>
   <glyph unicode="t" horiz-adv-x="537" d="M 554,8 C 495,-8 434,-16 372,-16 228,-16 156,66 156,229 L 156,951 31,951 31,1082 163,1082 216,1324 336,1324 336,1082 536,1082 536,951 336,951 336,268 C 336,216 345,180 362,159 379,138 408,127 450,127 474,127 509,132 554,141 Z"/>
   <glyph unicode="s" horiz-adv-x="909" d="M 950,299 C 950,197 912,118 835,63 758,8 650,-20 511,-20 376,-20 273,2 200,47 127,91 79,160 57,254 L 216,285 C 231,227 263,185 311,158 359,131 426,117 511,117 602,117 669,131 712,159 754,187 775,229 775,285 775,328 760,362 731,389 702,416 654,438 589,455 L 460,489 C 357,516 283,542 240,568 196,593 162,624 137,661 112,698 100,743 100,796 100,895 135,970 206,1022 276,1073 378,1099 513,1099 632,1099 727,1078 798,1036 868,994 912,927 931,834 L 769,814 C 759,862 732,899 689,925 645,950 586,963 513,963 432,963 372,951 333,926 294,901 275,864 275,814 275,783 283,758 299,738 315,718 339,701 370,687 401,673 467,654 568,629 663,605 732,583 774,563 816,542 849,520 874,495 898,470 917,442 930,410 943,377 950,340 950,299 Z"/>
   <glyph unicode="r" horiz-adv-x="513" d="M 142,0 L 142,830 C 142,906 140,990 136,1082 L 306,1082 C 311,959 314,886 314,861 L 318,861 C 347,954 380,1017 417,1051 454,1085 507,1102 575,1102 599,1102 623,1099 648,1092 L 648,927 C 624,934 592,937 552,937 477,937 420,905 381,841 342,776 322,684 322,564 L 322,0 Z"/>
   <glyph unicode="o" horiz-adv-x="957" d="M 1053,542 C 1053,353 1011,212 928,119 845,26 724,-20 565,-20 407,-20 288,28 207,125 126,221 86,360 86,542 86,915 248,1102 571,1102 736,1102 858,1057 936,966 1014,875 1053,733 1053,542 Z M 864,542 C 864,691 842,800 798,868 753,935 679,969 574,969 469,969 393,935 346,866 299,797 275,689 275,542 275,399 298,292 345,221 391,149 464,113 563,113 671,113 748,148 795,217 841,286 864,395 864,542 Z"/>
   <glyph unicode="n" horiz-adv-x="863" d="M 825,0 L 825,686 C 825,757 818,813 804,852 790,891 768,920 737,937 706,954 661,963 602,963 515,963 447,933 397,874 347,815 322,732 322,627 L 322,0 142,0 142,851 C 142,977 140,1054 136,1082 L 306,1082 C 307,1079 307,1070 308,1055 309,1040 310,1024 311,1005 312,986 313,950 314,897 L 317,897 C 358,972 406,1025 461,1056 515,1087 582,1102 663,1102 782,1102 869,1073 924,1014 979,955 1006,857 1006,721 L 1006,0 Z"/>
   <glyph unicode="m" horiz-adv-x="1422" d="M 768,0 L 768,686 C 768,791 754,863 725,903 696,943 645,963 570,963 493,963 433,934 388,875 343,816 321,734 321,627 L 321,0 142,0 142,851 C 142,977 140,1054 136,1082 L 306,1082 C 307,1079 307,1070 308,1055 309,1040 310,1024 311,1005 312,986 313,950 314,897 L 317,897 C 356,974 400,1027 450,1057 500,1087 561,1102 633,1102 715,1102 780,1086 828,1053 875,1020 908,968 927,897 L 930,897 C 967,970 1013,1022 1066,1054 1119,1086 1183,1102 1258,1102 1367,1102 1447,1072 1497,1013 1546,954 1571,856 1571,721 L 1571,0 1393,0 1393,686 C 1393,791 1379,863 1350,903 1321,943 1270,963 1195,963 1116,963 1055,934 1012,876 968,817 946,734 946,627 L 946,0 Z"/>
   <glyph unicode="l" horiz-adv-x="187" d="M 138,0 L 138,1484 318,1484 318,0 Z"/>
   <glyph unicode="k" horiz-adv-x="886" d="M 816,0 L 450,494 318,385 318,0 138,0 138,1484 318,1484 318,557 793,1082 1004,1082 565,617 1027,0 Z"/>
   <glyph unicode="i" horiz-adv-x="187" d="M 137,1312 L 137,1484 317,1484 317,1312 Z M 137,0 L 137,1082 317,1082 317,0 Z"/>
   <glyph unicode="h" horiz-adv-x="863" d="M 317,897 C 356,968 402,1020 457,1053 511,1086 580,1102 663,1102 780,1102 867,1073 923,1015 978,956 1006,858 1006,721 L 1006,0 825,0 825,686 C 825,762 818,819 804,856 790,893 767,920 735,937 703,954 659,963 602,963 517,963 450,934 399,875 348,816 322,737 322,638 L 322,0 142,0 142,1484 322,1484 322,1098 C 322,1057 321,1015 319,972 316,929 315,904 314,897 Z"/>
   <glyph unicode="g" horiz-adv-x="910" d="M 548,-425 C 430,-425 336,-402 266,-356 196,-309 151,-243 131,-158 L 312,-132 C 324,-182 351,-221 392,-248 433,-275 486,-288 553,-288 732,-288 822,-183 822,27 L 822,201 820,201 C 786,132 739,80 680,45 621,10 551,-8 472,-8 339,-8 242,36 180,124 117,212 86,350 86,539 86,730 120,872 187,963 254,1054 355,1099 492,1099 569,1099 635,1082 692,1047 748,1012 791,962 822,897 L 824,897 C 824,917 825,952 828,1001 831,1050 833,1077 836,1082 L 1007,1082 C 1003,1046 1001,971 1001,858 L 1001,31 C 1001,-273 850,-425 548,-425 Z M 822,541 C 822,629 810,705 786,769 762,832 728,881 685,915 641,948 591,965 536,965 444,965 377,932 335,865 293,798 272,690 272,541 272,393 292,287 331,222 370,157 438,125 533,125 590,125 640,142 684,175 728,208 762,256 786,319 810,381 822,455 822,541 Z"/>
   <glyph unicode="e" horiz-adv-x="957" d="M 276,503 C 276,379 302,283 353,216 404,149 479,115 578,115 656,115 719,131 766,162 813,193 844,233 861,281 L 1019,236 C 954,65 807,-20 578,-20 418,-20 296,28 213,123 129,218 87,360 87,548 87,727 129,864 213,959 296,1054 416,1102 571,1102 889,1102 1048,910 1048,527 L 1048,503 Z M 862,641 C 852,755 823,838 775,891 727,943 658,969 568,969 481,969 412,940 361,882 310,823 282,743 278,641 Z"/>
   <glyph unicode="c" horiz-adv-x="887" d="M 275,546 C 275,402 298,295 343,226 388,157 457,122 548,122 612,122 666,139 709,174 752,209 778,262 788,334 L 970,322 C 956,218 912,135 837,73 762,11 668,-20 553,-20 402,-20 286,28 207,124 127,219 87,359 87,542 87,724 127,863 207,959 287,1054 402,1102 551,1102 662,1102 754,1073 827,1016 900,959 945,880 964,779 L 779,765 C 770,825 746,873 708,908 670,943 616,961 546,961 451,961 382,929 339,866 296,803 275,696 275,546 Z"/>
   <glyph unicode="b" horiz-adv-x="910" d="M 1053,546 C 1053,169 920,-20 655,-20 573,-20 505,-5 451,25 396,54 352,102 318,168 L 316,168 C 316,147 315,116 312,74 309,31 307,7 306,0 L 132,0 C 136,36 138,110 138,223 L 138,1484 318,1484 318,1061 C 318,1018 317,967 314,908 L 318,908 C 351,977 396,1027 451,1057 506,1087 574,1102 655,1102 792,1102 892,1056 957,964 1021,872 1053,733 1053,546 Z M 864,540 C 864,691 844,800 804,865 764,930 699,963 609,963 508,963 434,928 388,859 341,790 318,680 318,529 318,387 341,282 386,215 431,147 505,113 607,113 698,113 763,147 804,214 844,281 864,389 864,540 Z"/>
   <glyph unicode="a" horiz-adv-x="1050" d="M 414,-20 C 305,-20 224,9 169,66 114,123 87,202 87,302 87,414 124,500 198,560 271,620 390,652 554,656 L 797,660 797,719 C 797,807 778,870 741,908 704,946 645,965 565,965 484,965 426,951 389,924 352,897 330,853 323,793 L 135,810 C 166,1005 310,1102 569,1102 705,1102 807,1071 876,1009 945,946 979,856 979,738 L 979,272 C 979,219 986,179 1000,152 1014,125 1041,111 1080,111 1097,111 1117,113 1139,118 L 1139,6 C 1094,-5 1047,-10 1000,-10 933,-10 885,8 855,43 824,78 807,132 803,207 L 797,207 C 751,124 698,66 637,32 576,-3 501,-20 414,-20 Z M 455,115 C 521,115 580,130 631,160 682,190 723,231 753,284 782,336 797,390 797,445 L 797,534 600,530 C 515,529 451,520 408,504 364,488 330,463 307,430 284,397 272,353 272,299 272,240 288,195 320,163 351,131 396,115 455,115 Z"/>
   <glyph unicode="W" horiz-adv-x="1935" d="M 1511,0 L 1283,0 1039,895 C 1023,951 1000,1051 969,1196 952,1119 937,1054 925,1002 913,950 822,616 652,0 L 424,0 9,1409 208,1409 461,514 C 491,402 519,287 544,168 560,241 579,321 600,408 621,495 713,828 877,1409 L 1060,1409 1305,532 C 1342,389 1372,267 1393,168 L 1402,203 C 1420,280 1435,342 1446,391 1457,439 1551,778 1727,1409 L 1926,1409 Z"/>
   <glyph unicode="U" horiz-adv-x="1166" d="M 731,-20 C 616,-20 515,1 429,43 343,85 276,146 229,226 182,306 158,401 158,512 L 158,1409 349,1409 349,528 C 349,399 382,302 447,235 512,168 607,135 730,135 857,135 955,170 1026,239 1096,308 1131,408 1131,541 L 1131,1409 1321,1409 1321,530 C 1321,416 1297,318 1249,235 1200,152 1132,89 1044,46 955,2 851,-20 731,-20 Z"/>
   <glyph unicode="T" horiz-adv-x="1166" d="M 720,1253 L 720,0 530,0 530,1253 46,1253 46,1409 1204,1409 1204,1253 Z"/>
   <glyph unicode="S" horiz-adv-x="1190" d="M 1272,389 C 1272,259 1221,158 1120,87 1018,16 875,-20 690,-20 347,-20 148,99 93,338 L 278,375 C 299,290 345,228 414,189 483,149 578,129 697,129 820,129 916,150 983,193 1050,235 1083,297 1083,379 1083,425 1073,462 1052,491 1031,520 1001,543 963,562 925,581 880,596 827,609 774,622 716,635 652,650 541,675 456,699 399,724 341,749 295,776 262,807 229,837 203,872 186,913 168,954 159,1000 159,1053 159,1174 205,1267 298,1332 390,1397 522,1430 694,1430 854,1430 976,1406 1061,1357 1146,1308 1205,1224 1239,1106 L 1051,1073 C 1030,1148 991,1202 933,1236 875,1269 795,1286 692,1286 579,1286 493,1267 434,1230 375,1193 345,1137 345,1063 345,1020 357,984 380,956 403,927 436,903 479,884 522,864 609,840 738,811 781,801 825,791 868,781 911,770 952,758 991,744 1030,729 1067,712 1102,693 1136,674 1166,650 1191,622 1216,594 1236,561 1251,523 1265,485 1272,440 1272,389 Z"/>
   <glyph unicode="R" horiz-adv-x="1213" d="M 1164,0 L 798,585 359,585 359,0 168,0 168,1409 831,1409 C 990,1409 1112,1374 1199,1303 1285,1232 1328,1133 1328,1006 1328,901 1298,813 1237,742 1176,671 1091,626 984,607 L 1384,0 Z M 1136,1004 C 1136,1086 1108,1149 1053,1192 997,1235 917,1256 812,1256 L 359,1256 359,736 820,736 C 921,736 999,760 1054,807 1109,854 1136,919 1136,1004 Z"/>
   <glyph unicode="P" horiz-adv-x="1096" d="M 1258,985 C 1258,852 1215,746 1128,667 1041,588 922,549 773,549 L 359,549 359,0 168,0 168,1409 761,1409 C 919,1409 1041,1372 1128,1298 1215,1224 1258,1120 1258,985 Z M 1066,983 C 1066,1165 957,1256 738,1256 L 359,1256 359,700 746,700 C 959,700 1066,794 1066,983 Z"/>
   <glyph unicode="M" horiz-adv-x="1376" d="M 1366,0 L 1366,940 C 1366,1044 1369,1144 1375,1240 1342,1121 1313,1027 1287,960 L 923,0 789,0 420,960 364,1130 331,1240 334,1129 338,940 338,0 168,0 168,1409 419,1409 794,432 C 807,393 820,351 833,306 845,261 853,228 857,208 862,235 874,275 891,330 908,384 919,418 925,432 L 1293,1409 1538,1409 1538,0 Z"/>
   <glyph unicode="L" horiz-adv-x="910" d="M 168,0 L 168,1409 359,1409 359,156 1071,156 1071,0 Z"/>
   <glyph unicode="H" horiz-adv-x="1143" d="M 1121,0 L 1121,653 359,653 359,0 168,0 168,1409 359,1409 359,813 1121,813 1121,1409 1312,1409 1312,0 Z"/>
   <glyph unicode="E" horiz-adv-x="1120" d="M 168,0 L 168,1409 1237,1409 1237,1253 359,1253 359,801 1177,801 1177,647 359,647 359,156 1278,156 1278,0 Z"/>
   <glyph unicode="D" horiz-adv-x="1213" d="M 1381,719 C 1381,574 1353,447 1296,338 1239,229 1159,145 1055,87 951,29 831,0 695,0 L 168,0 168,1409 634,1409 C 873,1409 1057,1349 1187,1230 1316,1110 1381,940 1381,719 Z M 1189,719 C 1189,894 1141,1027 1046,1119 950,1210 811,1256 630,1256 L 359,1256 359,153 673,153 C 776,153 867,176 946,221 1024,266 1084,332 1126,417 1168,502 1189,603 1189,719 Z"/>
   <glyph unicode="C" horiz-adv-x="1306" d="M 792,1274 C 636,1274 515,1224 428,1124 341,1023 298,886 298,711 298,538 343,400 434,295 524,190 646,137 800,137 997,137 1146,235 1245,430 L 1401,352 C 1343,231 1262,138 1157,75 1052,12 930,-20 791,-20 649,-20 526,10 423,69 319,128 240,212 186,322 131,431 104,561 104,711 104,936 165,1112 286,1239 407,1366 575,1430 790,1430 940,1430 1065,1401 1166,1342 1267,1283 1341,1196 1388,1081 L 1207,1021 C 1174,1103 1122,1166 1050,1209 977,1252 891,1274 792,1274 Z"/>
   <glyph unicode="A" horiz-adv-x="1353" d="M 1167,0 L 1006,412 364,412 202,0 4,0 579,1409 796,1409 1362,0 Z M 685,1265 L 676,1237 C 659,1182 635,1111 602,1024 L 422,561 949,561 768,1026 C 749,1072 731,1124 712,1182 Z"/>
   <glyph unicode="-" horiz-adv-x="491" d="M 91,464 L 91,624 591,624 591,464 Z"/>
   <glyph unicode=" " horiz-adv-x="559"/>
  </font>
 </defs>
 <defs class="TextShapeIndex">
  <g ooo:slide="id1" ooo:id-list="id3 id4 id5 id6 id7 id8 id9 id10 id11 id12 id13 id14 id15 id16 id17 id18 id19 id20 id21"/>
 </defs>
 <defs class="EmbeddedBulletChars">
  <g id="bullet-char-template(57356)" transform="scale(0.00048828125,-0.00048828125)">
   <path d="M 580,1141 L 1163,571 580,0 -4,571 580,1141 Z"/>
  </g>
  <g id="bullet-char-template(57354)" transform="scale(0.00048828125,-0.00048828125)">
   <path d="M 8,1128 L 1137,1128 1137,0 8,0 8,1128 Z"/>
  </g>
  <g id="bullet-char-template(10146)" transform="scale(0.00048828125,-0.00048828125)">
   <path d="M 174,0 L 602,739 174,1481 1456,739 174,0 Z M 1358,739 L 309,1346 659,739 1358,739 Z"/>
  </g>
  <g id="bullet-char-template(10132)" transform="scale(0.00048828125,-0.00048828125)">
   <path d="M 2015,739 L 1276,0 717,0 1260,543 174,543 174,936 1260,936 717,1481 1274,1481 2015,739 Z"/>
  </g>
  <g id="bullet-char-template(10007)" transform="scale(0.00048828125,-0.00048828125)">
   <path d="M 0,-2 C -7,14 -16,27 -25,37 L 356,567 C 262,823 215,952 215,954 215,979 228,992 255,992 264,992 276,990 289,987 310,991 331,999 354,1012 L 381,999 492,748 772,1049 836,1024 860,1049 C 881,1039 901,1025 922,1006 886,937 835,863 770,784 769,783 710,716 594,584 L 774,223 C 774,196 753,168 711,139 L 727,119 C 717,90 699,76 672,76 641,76 570,178 457,381 L 164,-76 C 142,-110 111,-127 72,-127 30,-127 9,-110 8,-76 1,-67 -2,-52 -2,-32 -2,-23 -1,-13 0,-2 Z"/>
  </g>
  <g id="bullet-char-template(10004)" transform="scale(0.00048828125,-0.00048828125)">
   <path d="M 285,-33 C 182,-33 111,30 74,156 52,228 41,333 41,471 41,549 55,616 82,672 116,743 169,778 240,778 293,778 328,747 346,684 L 369,508 C 377,444 397,411 428,410 L 1163,1116 C 1174,1127 1196,1133 1229,1133 1271,1133 1292,1118 1292,1087 L 1292,965 C 1292,929 1282,901 1262,881 L 442,47 C 390,-6 338,-33 285,-33 Z"/>
  </g>
  <g id="bullet-char-template(9679)" transform="scale(0.00048828125,-0.00048828125)">
   <path d="M 813,0 C 632,0 489,54 383,161 276,268 223,411 223,592 223,773 276,916 383,1023 489,1130 632,1184 813,1184 992,1184 1136,1130 1245,1023 1353,916 1407,772 1407,592 1407,412 1353,268 1245,161 1136,54 992,0 813,0 Z"/>
  </g>
  <g id="bullet-char-template(8226)" transform="scale(0.00048828125,-0.00048828125)">
   <path d="M 346,457 C 273,457 209,483 155,535 101,586 74,649 74,723 74,796 101,859 155,911 209,963 273,989 346,989 419,989 480,963 531,910 582,859 608,796 608,723 608,648 583,586 532,535 482,483 420,457 346,457 Z"/>
  </g>
  <g id="bullet-char-template(8211)" transform="scale(0.00048828125,-0.00048828125)">
   <path d="M -4,459 L 1135,459 1135,606 -4,606 -4,459 Z"/>
  </g>
 </defs>
 <defs class="TextEmbeddedBitmaps"/>
 <g>
  <g id="id2" class="Master_Slide">
   <g id="bg-id2" class="Background"/>
   <g id="bo-id2" class="BackgroundObjects"/>
  </g>
 </g>
 <g class="SlideGroup">
  <g>
   <g id="id1" class="Slide" clip-path="url(#presentation_clip_path)">
    <g class="Page">
     <g class="com.sun.star.drawing.CustomShape">
      <g id="id3">
       <path fill="rgb(114,159,207)" stroke="none" d="M 13129,6538 L 16807,6538 15911,7682 12234,7682 13129,6538 13129,6538 Z M 12234,6538 L 12234,6538 Z M 16807,7682 L 16807,7682 Z"/>
       <path fill="none" stroke="rgb(52,101,164)" d="M 13129,6538 L 16807,6538 15911,7682 12234,7682 13129,6538 13129,6538 Z"/>
       <path fill="none" stroke="rgb(52,101,164)" d="M 12234,6538 L 12234,6538 Z"/>
       <path fill="none" stroke="rgb(52,101,164)" d="M 16807,7682 L 16807,7682 Z"/>
       <text class="TextShape"><tspan class="TextParagraph" font-family="Liberation Sans, sans-serif" font-size="635px" font-weight="400"><tspan class="TextPosition" x="13921" y="7331"><tspan fill="rgb(0,0,0)" stroke="none">html</tspan></tspan></tspan></text>
      </g>
     </g>
     <g class="com.sun.star.drawing.CustomShape">
      <g id="id4">
       <path fill="rgb(114,159,207)" stroke="none" d="M 11289,4459 L 17767,4459 17767,5730 11289,5730 11289,4459 Z M 11289,4459 L 11289,4459 Z M 17767,5730 L 17767,5730 Z"/>
       <path fill="none" stroke="rgb(52,101,164)" d="M 11289,4459 L 17767,4459 17767,5730 11289,5730 11289,4459 Z"/>
       <path fill="none" stroke="rgb(52,101,164)" d="M 11289,4459 L 11289,4459 Z"/>
       <path fill="none" stroke="rgb(52,101,164)" d="M 17767,5730 L 17767,5730 Z"/>
       <path fill="rgb(114,159,207)" stroke="none" d="M 12050,4459 L 12050,5730 12050,4459 Z M 11289,4459 L 11289,4459 Z M 17767,5730 L 17767,5730 Z"/>
       <path fill="none" stroke="rgb(52,101,164)" d="M 12050,4459 L 12050,5730"/>
       <path fill="none" stroke="rgb(52,101,164)" d="M 11289,4459 L 11289,4459 Z"/>
       <path fill="none" stroke="rgb(52,101,164)" d="M 17767,5730 L 17767,5730 Z"/>
       <path fill="rgb(114,159,207)" stroke="none" d="M 17005,4459 L 17005,5730 17005,4459 Z M 11289,4459 L 11289,4459 Z M 17767,5730 L 17767,5730 Z"/>
       <path fill="none" stroke="rgb(52,101,164)" d="M 17005,4459 L 17005,5730"/>
       <path fill="none" stroke="rgb(52,101,164)" d="M 11289,4459 L 11289,4459 Z"/>
       <path fill="none" stroke="rgb(52,101,164)" d="M 17767,5730 L 17767,5730 Z"/>
       <text class="TextShape"><tspan class="TextParagraph" font-family="Liberation Sans, sans-serif" font-size="635px" font-weight="400"><tspan class="TextPosition" x="12163" y="5315"><tspan fill="rgb(0,0,0)" stroke="none">Extraktion HTML</tspan></tspan></tspan></text>
      </g>
     </g>
     <g class="com.sun.star.drawing.CustomShape">
      <g id="id5">
       <path fill="rgb(114,159,207)" stroke="none" d="M 11451,2427 L 14720,2427 13923,3444 10655,3444 11451,2427 11451,2427 Z M 10655,2427 L 10655,2427 Z M 14720,3444 L 14720,3444 Z"/>
       <path fill="none" stroke="rgb(52,101,164)" d="M 11451,2427 L 14720,2427 13923,3444 10655,3444 11451,2427 11451,2427 Z"/>
       <path fill="none" stroke="rgb(52,101,164)" d="M 10655,2427 L 10655,2427 Z"/>
       <path fill="none" stroke="rgb(52,101,164)" d="M 14720,3444 L 14720,3444 Z"/>
       <text class="TextShape"><tspan class="TextParagraph" font-family="Liberation Sans, sans-serif" font-size="635px" font-weight="400"><tspan class="TextPosition" x="11728" y="3156"><tspan fill="rgb(0,0,0)" stroke="none">WARC</tspan></tspan></tspan></text>
      </g>
     </g>
     <g class="com.sun.star.drawing.CustomShape">
      <g id="id6">
       <path fill="rgb(114,159,207)" stroke="none" d="M 16277,2427 L 19546,2427 18749,3444 15481,3444 16277,2427 16277,2427 Z M 15481,2427 L 15481,2427 Z M 19546,3444 L 19546,3444 Z"/>
       <path fill="none" stroke="rgb(52,101,164)" d="M 16277,2427 L 19546,2427 18749,3444 15481,3444 16277,2427 16277,2427 Z"/>
       <path fill="none" stroke="rgb(52,101,164)" d="M 15481,2427 L 15481,2427 Z"/>
       <path fill="none" stroke="rgb(52,101,164)" d="M 19546,3444 L 19546,3444 Z"/>
       <text class="TextShape"><tspan class="TextParagraph" font-family="Liberation Sans, sans-serif" font-size="635px" font-weight="400"><tspan class="TextPosition" x="16984" y="3156"><tspan fill="rgb(0,0,0)" stroke="none">Log</tspan></tspan></tspan></text>
      </g>
     </g>
     <g class="com.sun.star.drawing.CustomShape">
      <g id="id7">
       <path fill="rgb(114,159,207)" stroke="none" d="M 11479,8785 L 17576,8785 17576,10309 11479,10309 11479,8785 Z M 11479,8785 L 11479,8785 Z M 17576,10310 L 17576,10310 Z"/>
       <path fill="none" stroke="rgb(52,101,164)" d="M 11479,8785 L 17576,8785 17576,10309 11479,10309 11479,8785 Z"/>
       <path fill="none" stroke="rgb(52,101,164)" d="M 11479,8785 L 11479,8785 Z"/>
       <path fill="none" stroke="rgb(52,101,164)" d="M 17576,10310 L 17576,10310 Z"/>
       <path fill="rgb(114,159,207)" stroke="none" d="M 12195,8785 L 12195,10309 12195,8785 Z M 11479,8785 L 11479,8785 Z M 17576,10310 L 17576,10310 Z"/>
       <path fill="none" stroke="rgb(52,101,164)" d="M 12195,8785 L 12195,10309"/>
       <path fill="none" stroke="rgb(52,101,164)" d="M 11479,8785 L 11479,8785 Z"/>
       <path fill="none" stroke="rgb(52,101,164)" d="M 17576,10310 L 17576,10310 Z"/>
       <path fill="rgb(114,159,207)" stroke="none" d="M 16859,8785 L 16859,10309 16859,8785 Z M 11479,8785 L 11479,8785 Z M 17576,10310 L 17576,10310 Z"/>
       <path fill="none" stroke="rgb(52,101,164)" d="M 16859,8785 L 16859,10309"/>
       <path fill="none" stroke="rgb(52,101,164)" d="M 11479,8785 L 11479,8785 Z"/>
       <path fill="none" stroke="rgb(52,101,164)" d="M 17576,10310 L 17576,10310 Z"/>
       <text class="TextShape"><tspan class="TextParagraph" font-family="Liberation Sans, sans-serif" font-size="635px" font-weight="400"><tspan class="TextPosition" x="12461" y="9412"><tspan fill="rgb(0,0,0)" stroke="none">Extraktion Pub</tspan></tspan></tspan><tspan class="TextParagraph" font-family="Liberation Sans, sans-serif" font-size="635px" font-weight="400"><tspan class="TextPosition" x="13856" y="10123"><tspan fill="rgb(0,0,0)" stroke="none">Data</tspan></tspan></tspan></text>
      </g>
     </g>
     <g class="com.sun.star.drawing.CustomShape">
      <g id="id8">
       <path fill="rgb(114,159,207)" stroke="none" d="M 19452,9031 L 22721,9031 21924,10048 18656,10048 19452,9031 19452,9031 Z M 18656,9031 L 18656,9031 Z M 22721,10048 L 22721,10048 Z"/>
       <path fill="none" stroke="rgb(52,101,164)" d="M 19452,9031 L 22721,9031 21924,10048 18656,10048 19452,9031 19452,9031 Z"/>
       <path fill="none" stroke="rgb(52,101,164)" d="M 18656,9031 L 18656,9031 Z"/>
       <path fill="none" stroke="rgb(52,101,164)" d="M 22721,10048 L 22721,10048 Z"/>
       <text class="TextShape"><tspan class="TextParagraph" font-family="Liberation Sans, sans-serif" font-size="635px" font-weight="400"><tspan class="TextPosition" x="19524" y="9760"><tspan fill="rgb(0,0,0)" stroke="none">Schema</tspan></tspan></tspan></text>
      </g>
     </g>
     <g class="com.sun.star.drawing.CustomShape">
      <g id="id9">
       <path fill="rgb(114,159,207)" stroke="none" d="M 7133,9031 L 10402,9031 9605,10048 6337,10048 7133,9031 7133,9031 Z M 6337,9031 L 6337,9031 Z M 10402,10048 L 10402,10048 Z"/>
       <path fill="none" stroke="rgb(52,101,164)" d="M 7133,9031 L 10402,9031 9605,10048 6337,10048 7133,9031 7133,9031 Z"/>
       <path fill="none" stroke="rgb(52,101,164)" d="M 6337,9031 L 6337,9031 Z"/>
       <path fill="none" stroke="rgb(52,101,164)" d="M 10402,10048 L 10402,10048 Z"/>
       <text class="TextShape"><tspan class="TextParagraph" font-family="Liberation Sans, sans-serif" font-size="635px" font-weight="400"><tspan class="TextPosition" x="7540" y="9760"><tspan fill="rgb(0,0,0)" stroke="none">String</tspan></tspan></tspan></text>
      </g>
     </g>
     <g class="com.sun.star.drawing.CustomShape">
      <g id="id10">
       <path fill="rgb(114,159,207)" stroke="none" d="M 12820,11444 L 17315,11444 16220,12968 11726,12968 12820,11444 12820,11444 Z M 11726,11444 L 11726,11444 Z M 17315,12969 L 17315,12969 Z"/>
       <path fill="none" stroke="rgb(52,101,164)" d="M 12820,11444 L 17315,11444 16220,12968 11726,12968 12820,11444 12820,11444 Z"/>
       <path fill="none" stroke="rgb(52,101,164)" d="M 11726,11444 L 11726,11444 Z"/>
       <path fill="none" stroke="rgb(52,101,164)" d="M 17315,12969 L 17315,12969 Z"/>
       <text class="TextShape"><tspan class="TextParagraph" font-family="Liberation Sans, sans-serif" font-size="635px" font-weight="400"><tspan class="TextPosition" x="12437" y="12071"><tspan fill="rgb(0,0,0)" stroke="none">Unstrukturierte</tspan></tspan></tspan><tspan class="TextParagraph" font-family="Liberation Sans, sans-serif" font-size="635px" font-weight="400"><tspan class="TextPosition" x="13178" y="12782"><tspan fill="rgb(0,0,0)" stroke="none">Pub-Liste</tspan></tspan></tspan></text>
      </g>
     </g>
     <g class="com.sun.star.drawing.CustomShape">
      <g id="id11">
       <path fill="rgb(114,159,207)" stroke="none" d="M 11465,14144 L 17562,14144 17562,15668 11465,15668 11465,14144 Z M 11465,14144 L 11465,14144 Z M 17562,15669 L 17562,15669 Z"/>
       <path fill="none" stroke="rgb(52,101,164)" d="M 11465,14144 L 17562,14144 17562,15668 11465,15668 11465,14144 Z"/>
       <path fill="none" stroke="rgb(52,101,164)" d="M 11465,14144 L 11465,14144 Z"/>
       <path fill="none" stroke="rgb(52,101,164)" d="M 17562,15669 L 17562,15669 Z"/>
       <path fill="rgb(114,159,207)" stroke="none" d="M 12181,14144 L 12181,15668 12181,14144 Z M 11465,14144 L 11465,14144 Z M 17562,15669 L 17562,15669 Z"/>
       <path fill="none" stroke="rgb(52,101,164)" d="M 12181,14144 L 12181,15668"/>
       <path fill="none" stroke="rgb(52,101,164)" d="M 11465,14144 L 11465,14144 Z"/>
       <path fill="none" stroke="rgb(52,101,164)" d="M 17562,15669 L 17562,15669 Z"/>
       <path fill="rgb(114,159,207)" stroke="none" d="M 16845,14144 L 16845,15668 16845,14144 Z M 11465,14144 L 11465,14144 Z M 17562,15669 L 17562,15669 Z"/>
       <path fill="none" stroke="rgb(52,101,164)" d="M 16845,14144 L 16845,15668"/>
       <path fill="none" stroke="rgb(52,101,164)" d="M 11465,14144 L 11465,14144 Z"/>
       <path fill="none" stroke="rgb(52,101,164)" d="M 17562,15669 L 17562,15669 Z"/>
       <text class="TextShape"><tspan class="TextParagraph" font-family="Liberation Sans, sans-serif" font-size="635px" font-weight="400"><tspan class="TextPosition" x="12695" y="15127"><tspan fill="rgb(0,0,0)" stroke="none">Strukturieren</tspan></tspan></tspan></text>
      </g>
     </g>
     <g class="com.sun.star.drawing.ConnectorShape">
      <g id="id12">
       <path fill="none" stroke="rgb(0,0,0)" d="M 14520,12968 L 14520,13557 14513,13557 14513,13714"/>
       <path fill="rgb(0,0,0)" stroke="none" d="M 14513,14144 L 14663,13694 14363,13694 14513,14144 Z"/>
      </g>
     </g>
     <g class="com.sun.star.drawing.ConnectorShape">
      <g id="id13">
       <path fill="none" stroke="rgb(0,0,0)" d="M 12687,3443 L 12687,3952 14528,3952 14528,4029"/>
       <path fill="rgb(0,0,0)" stroke="none" d="M 14528,4459 L 14678,4009 14378,4009 14528,4459 Z"/>
      </g>
     </g>
     <g class="com.sun.star.drawing.ConnectorShape">
      <g id="id14">
       <path fill="none" stroke="rgb(0,0,0)" d="M 17099,3443 L 17099,3952 14528,3952 14528,4029"/>
       <path fill="rgb(0,0,0)" stroke="none" d="M 14528,4459 L 14678,4009 14378,4009 14528,4459 Z"/>
      </g>
     </g>
     <g class="com.sun.star.drawing.ConnectorShape">
      <g id="id15">
       <path fill="none" stroke="rgb(0,0,0)" d="M 14528,5729 L 14528,6117"/>
       <path fill="rgb(0,0,0)" stroke="none" d="M 14520,6539 L 14678,6092 14378,6086 14520,6539 Z"/>
      </g>
     </g>
     <g class="com.sun.star.drawing.ConnectorShape">
      <g id="id16">
       <path fill="none" stroke="rgb(0,0,0)" d="M 14520,7682 L 14520,8234 14527,8234 14527,8355"/>
       <path fill="rgb(0,0,0)" stroke="none" d="M 14527,8785 L 14677,8335 14377,8335 14527,8785 Z"/>
      </g>
     </g>
     <g class="com.sun.star.drawing.ConnectorShape">
      <g id="id17">
       <path fill="none" stroke="rgb(0,0,0)" d="M 9987,9539 L 10941,9539 10941,9547 11049,9547"/>
       <path fill="rgb(0,0,0)" stroke="none" d="M 11479,9547 L 11029,9397 11029,9697 11479,9547 Z"/>
      </g>
     </g>
     <g class="com.sun.star.drawing.ConnectorShape">
      <g id="id18">
       <path fill="none" stroke="rgb(0,0,0)" d="M 19062,9539 L 18116,9539 18116,9547 18005,9547"/>
       <path fill="rgb(0,0,0)" stroke="none" d="M 17575,9547 L 18025,9697 18025,9397 17575,9547 Z"/>
      </g>
     </g>
     <g class="com.sun.star.drawing.ConnectorShape">
      <g id="id19">
       <path fill="none" stroke="rgb(0,0,0)" d="M 14527,10309 L 14527,10877 14520,10877 14520,11014"/>
       <path fill="rgb(0,0,0)" stroke="none" d="M 14520,11444 L 14670,10994 14370,10994 14520,11444 Z"/>
      </g>
     </g>
     <g class="com.sun.star.drawing.CustomShape">
      <g id="id20">
       <path fill="rgb(114,159,207)" stroke="none" d="M 12254,16857 L 18212,16857 16761,18381 10804,18381 12254,16857 12254,16857 Z M 10804,16857 L 10804,16857 Z M 18212,18382 L 18212,18382 Z"/>
       <path fill="none" stroke="rgb(52,101,164)" d="M 12254,16857 L 18212,16857 16761,18381 10804,18381 12254,16857 12254,16857 Z"/>
       <path fill="none" stroke="rgb(52,101,164)" d="M 10804,16857 L 10804,16857 Z"/>
       <path fill="none" stroke="rgb(52,101,164)" d="M 18212,18382 L 18212,18382 Z"/>
       <text class="TextShape"><tspan class="TextParagraph" font-family="Liberation Sans, sans-serif" font-size="635px" font-weight="400"><tspan class="TextPosition" x="12001" y="17484"><tspan fill="rgb(0,0,0)" stroke="none">Semi-strukturierte</tspan></tspan></tspan><tspan class="TextParagraph" font-family="Liberation Sans, sans-serif" font-size="635px" font-weight="400"><tspan class="TextPosition" x="13165" y="18195"><tspan fill="rgb(0,0,0)" stroke="none">Pub-Liste</tspan></tspan></tspan></text>
      </g>
     </g>
     <g class="com.sun.star.drawing.ConnectorShape">
      <g id="id21">
       <path fill="none" stroke="rgb(0,0,0)" d="M 14513,15668 L 14513,16263 14509,16263 14509,16427"/>
       <path fill="rgb(0,0,0)" stroke="none" d="M 14509,16857 L 14659,16407 14359,16407 14509,16857 Z"/>
      </g>
     </g>
    </g>
   </g>
  </g>
 </g>
</svg>